Active-HDL 8.3.2120.sp1.14.3884  2018-11-12 17:45:05

Elaboration top modules:
Architecture                  tb_architecture(seven_segment_tb)


---------------------------------------------------------------------------------------------------------------------------
Entity           | Architecture    | Library                | Info | Compiler Version                | Compilation Options
---------------------------------------------------------------------------------------------------------------------------
seven_segment_tb | tb_architecture | cad_hw02_mehran_rafiee |      | 8.3.2120.sp1.14.3884  (Windows) | -dbg -2002
seven_segment    | seven_segment   | cad_hw02_mehran_rafiee |      | 8.3.2120.sp1.14.3884  (Windows) | -dbg -2002
---------------------------------------------------------------------------------------------------------------------------

---------------------------------------------------------------------------------------------------------------------------
VHDL Package                       | Library                | Info | Compiler Version                | Compilation Options
---------------------------------------------------------------------------------------------------------------------------
standard                           | std                    |      |                                 | <unavailable>
TEXTIO                             | std                    |      | 8.3.2120.sp1.14.3884  (Windows) | -2008
std_logic_1164                     | ieee                   |      | 8.3.2120.sp1.14.3884  (Windows) | -2008
std_logic_arith                    | ieee                   |      | 8.3.2120.sp1.14.3884  (Windows) | -2002
STD_LOGIC_UNSIGNED                 | ieee                   |      | 8.3.2120.sp1.14.3884  (Windows) | -2002
---------------------------------------------------------------------------------------------------------------------------

---------------------------------------------------------------------------------------------------------------------------
Library                            | Comment
---------------------------------------------------------------------------------------------------------------------------
cad_hw02_mehran_rafiee             | None
ieee                               | Standard IEEE packages library
std                                | Standard VHDL library
---------------------------------------------------------------------------------------------------------------------------
